[
    {
      "towerId": "T001",
      "location": {
        "latitude": "80.3434",
        "longitude": "79.4343"
      },
      "temperature": "22",
      "powerSource": "Electric",
      "fuelStatus": "80"
    },
    {
      "towerId": "T002",
      "location": {
        "latitude": "81.5678",
        "longitude": "78.1234"
      },
      "temperature": "18",
      "powerSource": "DG",
      "fuelStatus": "60"
    },
    {
      "towerId": "T003",
      "location": {
        "latitude": "79.8765",
        "longitude": "77.5678"
      },
      "temperature": "24",
      "powerSource": "Electric",
      "fuelStatus": "75"
    },
    {
      "towerId": "T004",
      "location": {
        "latitude": "82.1234",
        "longitude": "76.8765"
      },
      "temperature": "19",
      "powerSource": "DG",
      "fuelStatus": "50"
    },
    {
      "towerId": "T005",
      "location": {
        "latitude": "78.4321",
        "longitude": "75.9876"
      },
      "temperature": "23",
      "powerSource": "Electric",
      "fuelStatus": "70"
    },
    {
      "towerId": "T006",
      "location": {
        "latitude": "83.8765",
        "longitude": "74.4321"
      },
      "temperature": "17",
      "powerSource": "DG",
      "fuelStatus": "40"
    },
    {
      "towerId": "T007",
      "location": {
        "latitude": "77.6543",
        "longitude": "73.9876"
      },
      "temperature": "25",
      "powerSource": "Electric",
      "fuelStatus": "85"
    },
    {
      "towerId": "T008",
      "location": {
        "latitude": "84.5678",
        "longitude": "72.6543"
      },
      "temperature": "16",
      "powerSource": "DG",
      "fuelStatus": "45"
    },
    {
      "towerId": "T009",
      "location": {
        "latitude": "76.7890",
        "longitude": "71.3456"
      },
      "temperature": "21",
      "powerSource": "Electric",
      "fuelStatus": "65"
    },
    {
      "towerId": "T010",
      "location": {
        "latitude": "85.4321",
        "longitude": "70.1234"
      },
      "temperature": "15",
      "powerSource": "DG",
      "fuelStatus": "55"
    }
  ]
  